Division,WeightClassKg,Place,Name,Team,BodyweightKg,Best3SquatKg,Best3BenchKg,Best3DeadliftKg,TotalKg,Equipment,Event,Sex,BirthDate
Boys,51.71,1,Jason Ramirez,Levelland,46.9,138.35,83.91,151.95,374.21,Single-ply,SBD,M,
Boys,51.71,2,Santos Figueroa,Plainview,50.17,147.42,72.57,154.22,374.21,Single-ply,SBD,M,
Boys,51.71,3,Payton Rhodes,Hart,50.53,117.93,77.11,127.01,322.05,Single-ply,SBD,M,
Boys,51.71,4,Hunter Penrod,Sudan,49.26,90.72,49.9,97.52,238.14,Single-ply,SBD,M,
Boys,51.71,5,Nathan Rendon,Levelland,49.9,79.38,54.43,104.33,238.14,Single-ply,SBD,M,
Boys,51.71,6,Ethan Martinez,Wolfforth Frenship,49.17,90.72,52.16,79.38,222.26,Single-ply,SBD,M,
Boys,51.71,7,Azariah Gonzalez,Dimmitt,45,68.04,38.56,77.11,183.7,Single-ply,SBD,M,
Boys,55.79,1,Sebastain Rios,Ralls,55.07,117.93,70.31,154.22,342.46,Single-ply,SBD,M,
Boys,55.79,2,Alejandro Diaz,Hart,54.98,104.33,52.16,140.61,297.1,Single-ply,SBD,M,
Boys,55.79,3,Elijah Perez,Ralls,55.07,99.79,58.97,113.4,272.16,Single-ply,SBD,M,
Boys,59.87,1,Alexis Delgadoo,Plainview,58.69,149.69,72.57,165.56,387.82,Single-ply,SBD,M,
Boys,59.87,2,Hayden Montgomery,Tulia,59.87,138.35,70.31,145.15,353.8,Single-ply,SBD,M,
Boys,59.87,3,Jermaine Stotts,Wolfforth Frenship,59.06,111.13,68.04,124.74,303.91,Single-ply,SBD,M,
Boys,67.13,1,Steven Salazar,Ralls,65.05,158.76,102.06,185.97,446.79,Single-ply,SBD,M,
Boys,67.13,2,Mauro Moreno,Ralls,63.05,151.95,90.72,165.56,408.23,Single-ply,SBD,M,
Boys,67.13,3,Callen Cannon,Sudan,66.86,138.35,102.06,161.03,401.43,Single-ply,SBD,M,
Boys,67.13,4,Ramon Zubiate,Denver City,63.96,142.88,104.33,151.95,399.16,Single-ply,SBD,M,
Boys,67.13,5,Ivan Fernandez,Tulia,64.68,142.88,74.84,149.69,367.41,Single-ply,SBD,M,
Boys,67.13,6,Tristan Ramirez,Levelland,64.41,122.47,74.84,151.95,349.27,Single-ply,SBD,M,
Boys,67.13,7,Jose Zavala,Ralls,61.05,108.86,77.11,136.08,322.05,Single-ply,SBD,M,
Boys,67.13,8,Matthew Landin,Wolfforth Frenship,64.86,102.06,61.23,142.88,306.17,Single-ply,SBD,M,
Boys,67.13,9,Carson Laminack,Ralls,62.23,108.86,68.04,124.74,301.64,Single-ply,SBD,M,
Boys,67.13,10,Angel Catalan,Dimmitt,67.13,108.86,70.31,115.67,294.84,Single-ply,SBD,M,
Boys,67.13,11,Adryen Menchaca,Wolfforth Frenship,65.5,97.52,61.23,131.54,290.3,Single-ply,SBD,M,
Boys,67.13,12,Joshua Booth,Hedley,65.5,102.06,61.23,124.74,288.03,Single-ply,SBD,M,
Boys,67.13,13,Julio Quintero,Denver City,66.22,83.91,47.63,99.79,231.33,Single-ply,SBD,M,
Boys,67.13,DQ,Sammy Salinas,Ralls,65.59,136.08,72.57,,,Single-ply,SBD,M,
Boys,74.84,1,Brandon Sigala,Levelland,72.48,210.92,127.01,226.8,564.72,Single-ply,SBD,M,
Boys,74.84,2,Xavier Garcia,Ralls,67.49,192.78,102.06,190.51,485.34,Single-ply,SBD,M,
Boys,74.84,3,Stephano Espejo,Plainview,74.03,185.97,111.13,183.7,480.81,Single-ply,SBD,M,
Boys,74.84,4,Ernest Godino,Plainview,71.21,176.9,113.4,183.7,474,Single-ply,SBD,M,
Boys,74.84,5,Julian Aragon,Plainview,71.58,181.44,97.52,181.44,460.4,Single-ply,SBD,M,
Boys,74.84,6,Uriel Rodriguez,Denver City,71.4,170.1,102.06,167.83,439.98,Single-ply,SBD,M,
Boys,74.84,7,William Wall,Dimmitt,70.67,142.88,102.06,183.7,428.64,Single-ply,SBD,M,
Boys,74.84,8,Luke Unterkircher,Tulia,74.57,151.95,88.45,170.1,410.5,Single-ply,SBD,M,
Boys,74.84,9,Shawn Chavez,Ralls,72.94,145.15,90.72,165.56,401.43,Single-ply,SBD,M,
Boys,74.84,10,Luke Ovalle,Ralls,71.94,149.69,77.11,158.76,385.55,Single-ply,SBD,M,
Boys,74.84,11,Christian Smith,Wolfforth Frenship,73.03,124.74,90.72,165.56,381.02,Single-ply,SBD,M,
Boys,74.84,12,Ivan Trinidad,Denver City,69.04,124.74,99.79,149.69,374.21,Single-ply,SBD,M,
Boys,74.84,13,Caleb McDowell,Tulia,73.75,142.88,70.31,154.22,367.41,Single-ply,SBD,M,
Boys,74.84,14,Andrew Guevara,Bovina,73.39,129.27,74.84,136.08,340.19,Single-ply,SBD,M,
Boys,74.84,15,Luke Pompa,Levelland,72.12,122.47,74.84,131.54,328.85,Single-ply,SBD,M,
Boys,74.84,16,Davin Mays,Clarendon,70.85,86.18,65.77,122.47,274.42,Single-ply,SBD,M,
Boys,74.84,DQ,Bryson Jones,Ralls,67.59,,,,,Single-ply,SBD,M,
Boys,82.1,1,Kaleb Salazar,Ralls,81.1,226.8,127.01,226.8,580.6,Single-ply,SBD,M,
Boys,82.1,2,Skyler Davis,Levelland,78.65,179.17,133.81,242.67,555.65,Single-ply,SBD,M,
Boys,82.1,3,Sergio Salinas,Ralls,77.93,208.65,117.93,222.26,548.85,Single-ply,SBD,M,
Boys,82.1,4,Marco Godino,Plainview,82.1,201.85,106.59,204.12,512.56,Single-ply,SBD,M,
Boys,82.1,5,Kathan Valenzuela,Tulia,75.66,181.44,90.72,204.12,476.27,Single-ply,SBD,M,
Boys,82.1,6,Elijah Gutierrez,Denver City,81.19,161.03,83.91,136.08,381.02,Single-ply,SBD,M,
Boys,82.1,7,Isiah Espinoza,Sudan,78.65,138.35,49.9,127.01,315.25,Single-ply,SBD,M,
Boys,89.81,1,Isaac Garza,Levelland,86.18,204.12,136.08,226.8,566.99,Single-ply,SBD,M,
Boys,89.81,2,Cameron Enriquez,Dimmitt,86,195.04,124.74,197.31,517.1,Single-ply,SBD,M,
Boys,89.81,3,Jerimiah Washington,Wolfforth Frenship,84.01,185.97,92.99,219.99,498.95,Single-ply,SBD,M,
Boys,89.81,4,Jordyn Vasquez,Plainview,86.82,176.9,111.13,179.17,467.2,Single-ply,SBD,M,
Boys,89.81,5,Jesus Lopez,Dimmitt,88.81,158.76,81.65,170.1,410.5,Single-ply,SBD,M,
Boys,89.81,6,David Shaver,Wolfforth Frenship,89.81,147.42,68.04,151.95,367.41,Single-ply,SBD,M,
Boys,89.81,7,Nathan King,Sudan,82.64,133.81,86.18,140.61,360.61,Single-ply,SBD,M,
Boys,89.81,8,Broussard Gannon,Clarendon,88.9,113.4,61.23,115.67,290.3,Single-ply,SBD,M,
Boys,99.79,1,Adam Velasco,Denver City,96.8,272.16,192.78,222.26,687.19,Single-ply,SBD,M,
Boys,99.79,2,Elias Martinez,Ralls,96.89,222.26,140.61,247.21,610.08,Single-ply,SBD,M,
Boys,99.79,3,Joe Barrera,Tulia,91.35,226.8,142.88,204.12,573.79,Single-ply,SBD,M,
Boys,99.79,4,Damian Pena,Denver City,93.53,215.46,138.35,219.99,573.79,Single-ply,SBD,M,
Boys,99.79,5,Jacob Landeros,Plainview,97.43,192.78,108.86,185.97,487.61,Single-ply,SBD,M,
Boys,99.79,6,Lorenzo Hernandez,Tulia,98.52,183.7,113.4,181.44,478.54,Single-ply,SBD,M,
Boys,99.79,7,Gerardo Gonzales,Dimmitt,96.07,170.1,83.91,204.12,458.13,Single-ply,SBD,M,
Boys,99.79,8,Gaberiel Cisneros,Sudan,95.8,192.78,102.06,161.03,455.86,Single-ply,SBD,M,
Boys,99.79,9,Nick Garcia #2,Denver City,91.63,163.29,113.4,170.1,446.79,Single-ply,SBD,M,
Boys,99.79,10,Manny Gonzalez,Denver City,99.79,140.61,97.52,154.22,392.36,Single-ply,SBD,M,
Boys,99.79,11,Aiden Herrera,Wolfforth Frenship,90.81,124.74,81.65,131.54,337.93,Single-ply,SBD,M,
Boys,99.79,12,Abraham Loeza,Dimmitt,95.71,120.2,88.45,127.01,335.66,Single-ply,SBD,M,
Boys,99.79,DQ,Corbin McDowell,Tulia,91.35,,,,,Single-ply,SBD,M,
Boys,109.77,1,Danny Guiterrez,Plainview,104.6,192.78,104.33,204.12,501.22,Single-ply,SBD,M,
Boys,109.77,2,Bobby Villegas,Tulia,104.69,204.12,95.25,185.97,485.34,Single-ply,SBD,M,
Boys,109.77,3,Jesus Trabado,Denver City,100.88,176.9,122.47,172.37,471.74,Single-ply,SBD,M,
Boys,109.77,4,Donte Garland,Wolfforth Frenship,100.15,170.1,108.86,181.44,460.4,Single-ply,SBD,M,
Boys,109.77,5,Zane Mendez,Ralls,108.86,154.22,74.84,142.88,371.95,Single-ply,SBD,M,
Boys,109.77,6,Luis Díaz,Dimmitt,107.05,111.13,70.31,124.74,306.17,Single-ply,SBD,M,
Boys,124.74,1,Iyceton White,Plainview,113.31,210.92,158.76,197.31,566.99,Single-ply,SBD,M,
Boys,124.74,2,Jesus Guerra,Sudan,120.02,192.78,102.06,219.99,514.83,Single-ply,SBD,M,
Boys,124.74,3,Elijah Vega,Crosbyton,110.77,183.7,102.06,183.7,469.47,Single-ply,SBD,M,
Boys,124.74,4,Blaize Whitaker,Wolfforth Frenship,118.02,104.33,102.06,172.37,378.75,Single-ply,SBD,M,
Boys,124.74+,1,Chris Torros,Crosbyton,170.28,260.82,136.08,206.38,603.28,Single-ply,SBD,M,
Boys,124.74+,2,Christian Garza,Plainview,139.62,197.31,138.35,208.65,544.31,Single-ply,SBD,M,
Boys,124.74+,3,Vincent Vasquera,Clarendon,134.08,199.58,122.47,208.65,530.7,Single-ply,SBD,M,
Boys,124.74+,4,Jordan Porter,Dimmitt,134.08,136.08,83.91,136.08,356.07,Single-ply,SBD,M,
Boys,,NS,Ezaiah Martinez,Dimmitt,,,,,,Single-ply,SBD,M,
Boys,,NS,Gabriel Reyes,Dimmitt,,,,,,Single-ply,SBD,M,
Boys,,NS,Xavier Ramos,Dimmitt,,,,,,Single-ply,SBD,M,
Boys,,NS,Dylen Wolfe,Levelland,,,,,,Single-ply,SBD,M,
Boys,,NS,Collin Monroe,Hedley,,,,,,Single-ply,SBD,M,
Boys,,NS,Callin Casellberry,Hedley,,,,,,Single-ply,SBD,M,
Boys,,NS,Alex Conley,Sudan,,,,,,Single-ply,SBD,M,
Boys,,NS,Zachary Hernandez,Tulia,,,,,,Single-ply,SBD,M,
Boys,,NS,Kris Marquez,Crosbyton,,,,,,Single-ply,SBD,M,
Boys,,NS,Nate Payen,Crosbyton,,,,,,Single-ply,SBD,M,
Boys,,NS,David Romero,Denver City,,,,,,Single-ply,SBD,M,
Boys,,NS,Dean Petty,Wolfforth Frenship,,,,,,Single-ply,SBD,M,
Boys,,NS,Cody Barker,Wolfforth Frenship,,,,,,Single-ply,SBD,M,
Boys,,NS,Ryder Gilbert,Wolfforth Frenship,,,,,,Single-ply,SBD,M,
Boys,,NS,Zaiah Riojas,Ralls,,,,,,Single-ply,SBD,M,
