Division,WeightClassKg,Place,Name,Team,BodyweightKg,Best3SquatKg,Best3BenchKg,Best3DeadliftKg,TotalKg,Equipment,Event,Sex
Boys,51.71,1,Chaz Graham,Lytle,51.71,113.4,58.97,131.54,303.91,Single-ply,SBD,M
Boys,55.79,1,Nathan Pringle,Lytle,55.16,127.01,72.57,136.08,335.66,Single-ply,SBD,M
Boys,59.87,2,Xavier Huerta,Lytle,55.97,108.86,56.7,111.13,276.69,Single-ply,SBD,M
Boys,55.79,DQ,Eddie Anguaino,San Antonio Kennedy,55.61,136.08,81.65,,,Single-ply,SBD,M
Boys,55.79,DQ,Julio Ramirez,Comal Canyon,55.25,170.1,,,,Single-ply,SBD,M
Boys,59.87,1,Michael Casarez,Three Rivers,58.69,201.85,95.25,201.85,498.95,Single-ply,SBD,M
Boys,59.87,2,Christian Sanchez,Cotulla,57.24,154.22,102.06,176.9,433.18,Single-ply,SBD,M
Boys,67.13,3,Gustavo Ayala,Cotulla,60.06,163.29,90.72,176.9,430.91,Single-ply,SBD,M
Boys,59.87,4,Joseph Soria,Lytle,59.33,131.54,74.84,131.54,337.93,Single-ply,SBD,M
Boys,59.87,DQ,Joel Rodriguez,Castroville Medina Valley,58.15,,,,,Single-ply,SBD,M
Boys,67.13,1,Ryan Umanzor,Cotulla,64.68,192.78,102.06,185.97,480.81,Single-ply,SBD,M
Boys,67.13,2,Adam Austin,Del Rio,64.77,179.17,102.06,185.97,467.2,Single-ply,SBD,M
Boys,67.13,3,Javier Sanchez,San Antonio Southside,66.32,181.44,95.25,172.37,449.06,Single-ply,SBD,M
Boys,67.13,4,Albert Terrazas,San Antonio Southside,61.87,167.83,97.52,163.29,428.64,Single-ply,SBD,M
Boys,67.13,5,Frank Ramirez,Del Rio,60.24,158.76,92.99,167.83,419.57,Single-ply,SBD,M
Boys,67.13,6,Taylor Carrillo,Lytle,65.95,145.15,90.72,165.56,401.43,Single-ply,SBD,M
Boys,67.13,7,Jj Aguinaga,Lytle,65.5,129.27,63.5,149.69,342.46,Single-ply,SBD,M
Boys,67.13,8,Leonard Barrientos,San Antonio Kennedy,65.41,117.93,61.23,117.93,297.1,Single-ply,SBD,M
Boys,67.13,DQ,Adrian Valdez,Lytle,67.13,,,,,Single-ply,SBD,M
Boys,67.13,DQ,Issac Villerreal,Del Rio,67.13,,,,,Single-ply,SBD,M
Boys,67.13,DQ,Ricky Ayala,Cotulla,66.32,185.97,97.52,,,Single-ply,SBD,M
Boys,67.13,DQ,Josh Moreno,Comal Canyon,66.86,,,,,Single-ply,SBD,M
Boys,74.84,1,Mark Ruiz,Cotulla,71.67,199.58,117.93,185.97,503.49,Single-ply,SBD,M
Boys,74.84,2,Logan Pennycook,Del Rio,72.57,183.7,102.06,208.65,494.42,Single-ply,SBD,M
Boys,74.84,3,Jake Martinez,Lytle,74.39,170.1,106.59,199.58,476.27,Single-ply,SBD,M
Boys,74.84,4,Trever Horvath,Castroville Medina Valley,70.49,176.9,117.93,156.49,451.32,Single-ply,SBD,M
Boys,74.84,5,Dylan Aguinaga,Lytle,73.3,165.56,90.72,188.24,444.52,Single-ply,SBD,M
Boys,74.84,6,Josh Mosh,Del Rio,72.03,165.56,99.79,163.29,428.64,Single-ply,SBD,M
Boys,74.84,7,Orlando Medrano,Lytle,73.57,151.95,102.06,156.49,410.5,Single-ply,SBD,M
Boys,74.84,8,Richard Lopez,San Antonio Kennedy,73.75,122.47,83.91,181.44,387.82,Single-ply,SBD,M
Boys,74.84,9,Mark Hernandez,Natalia,72.21,138.35,88.45,142.88,369.68,Single-ply,SBD,M
Boys,74.84,10,John Santos #1,Lytle,72.94,163.29,83.91,113.4,360.61,Single-ply,SBD,M
Boys,74.84,DQ,Daniel Ramirez,San Antonio Kennedy,74.84,,,,,Single-ply,SBD,M
Boys,74.84,DQ,Eduardo Saucedo,San Antonio Kennedy,74.84,,,,,Single-ply,SBD,M
Boys,74.84,DQ,Joey Vasquez,San Antonio Southside,74.84,,,,,Single-ply,SBD,M
Boys,74.84,DQ,Austin Gonzales,San Antonio Southside,71.85,183.7,,,,Single-ply,SBD,M
Boys,82.1,1,Rueben Hinojosa,Lytle,80.83,229.06,127.01,244.94,601.01,Single-ply,SBD,M
Boys,82.1,2,David Garza,Cotulla,81.47,215.46,131.54,226.8,573.79,Single-ply,SBD,M
Boys,82.1,3,Omar Guadarrama,San Antonio Southside,80.38,215.46,124.74,192.78,532.97,Single-ply,SBD,M
Boys,82.1,4,John Hernandez,San Antonio Southside,80.29,213.19,102.06,210.92,526.17,Single-ply,SBD,M
Boys,82.1,5,AJ Rice,Comal Canyon,80.74,176.9,106.59,176.9,460.4,Single-ply,SBD,M
Boys,89.81,6,Jesus Zendejas,Del Rio,82.19,154.22,92.99,165.56,412.77,Single-ply,SBD,M
Boys,82.1,7,Brian Gutierrez,Lytle,80.74,127.01,63.5,147.42,337.93,Single-ply,SBD,M
Boys,82.1,8,James Richards,Del Rio,80.92,92.99,56.7,111.13,260.82,Single-ply,SBD,M
Boys,82.1,DQ,Hunter Peterson,Castroville Medina Valley,78.11,,,,,Single-ply,SBD,M
Boys,89.81,1,Jefferey Moreno,Comal Canyon,87.27,278.96,167.83,285.76,732.55,Single-ply,SBD,M
Boys,89.81,2,Carlos Carrillo,Lytle,88.36,231.33,140.61,213.19,585.13,Single-ply,SBD,M
Boys,89.81,3,Trevor Luckemeyer,Comal Canyon,89.54,238.14,102.06,215.46,555.65,Single-ply,SBD,M
Boys,89.81,4,Brian Steffens,Del Rio,86.91,215.46,122.47,215.46,553.38,Single-ply,SBD,M
Boys,89.81,5,Nicholas Villareal,Comal Canyon,83.28,201.85,124.74,190.51,517.1,Single-ply,SBD,M
Boys,89.81,6,Jacob Rivera,San Antonio Southside,89.18,204.12,120.2,192.78,517.1,Single-ply,SBD,M
Boys,89.81,7,Rudy Pena,San Antonio Kennedy,87.82,195.04,88.45,204.12,487.61,Single-ply,SBD,M
Boys,89.81,8,Adolph Lopez,San Antonio Southside,86.91,208.65,68.04,206.38,483.08,Single-ply,SBD,M
Boys,99.79,9,Juan Espinoza,San Antonio Kennedy,89.99,113.4,63.5,172.37,349.27,Single-ply,SBD,M
Boys,89.81,DQ,Lance Huerta,Natalia,89.81,,,,,Single-ply,SBD,M
Boys,99.79,1,Jordan Garcia #6,Cotulla,91.53,229.06,140.61,240.4,610.08,Single-ply,SBD,M
Boys,99.79,2,Aaron Herrera,Del Rio,99.79,217.72,113.4,219.99,551.11,Single-ply,SBD,M
Boys,99.79,3,Adairn Valdez,Del Rio,99.16,183.7,106.59,213.19,503.49,Single-ply,SBD,M
Boys,109.77,4,Gary La Rue,San Antonio Kennedy,99.97,122.47,77.11,158.76,358.34,Single-ply,SBD,M
Boys,99.79,5,Paulino Bosquez,San Antonio Kennedy,95.98,106.59,58.97,142.88,308.44,Single-ply,SBD,M
Boys,99.79,DQ,Robert Garza,San Antonio Kennedy,99.79,,,,,Single-ply,SBD,M
Boys,99.79,DQ,Joshua Macat,Lytle,99.79,,,,,Single-ply,SBD,M
Boys,99.79,DQ,Paul Mesta,Del Rio,99.79,161.03,,,,Single-ply,SBD,M
Boys,99.79,DQ,David Moyet,San Antonio Southside,95.44,204.12,122.47,,,Single-ply,SBD,M
Boys,99.79,DQ,Richard Juarez,San Antonio Highlands,98.7,226.8,,,,Single-ply,SBD,M
Boys,109.77,1,Daniel Diaz,Three Rivers,104.14,242.67,140.61,231.33,614.62,Single-ply,SBD,M
Boys,124.74,2,Alejandro Maldonado #1,Uvalde,109.95,240.4,131.54,210.92,582.87,Single-ply,SBD,M
Boys,109.77,3,Jon Macat,Lytle,109.04,219.99,131.54,229.06,580.6,Single-ply,SBD,M
Boys,109.77,4,Jeremy Ybarra,San Antonio Kennedy,104.14,192.78,115.67,231.33,539.77,Single-ply,SBD,M
Boys,109.77,5,Duke Aguirre,San Antonio Kennedy,108.95,188.24,102.06,163.29,453.59,Single-ply,SBD,M
Boys,124.74,6,Brandon Williams #1,Del Rio,109.86,145.15,79.38,147.42,371.95,Single-ply,SBD,M
Boys,109.77,DQ,Damian Cantu,San Antonio Kennedy,109.77,,,,,Single-ply,SBD,M
Boys,109.77,DQ,John Rodriguez,San Antonio Kennedy,109.41,,,,,Single-ply,SBD,M
Boys,124.74,1,Robert Ramos,San Antonio Southside,122.92,244.94,158.76,199.58,603.28,Single-ply,SBD,M
Boys,124.74,2,Adam Gonzales,San Antonio Kennedy,115.67,197.31,127.01,208.65,532.97,Single-ply,SBD,M
Boys,124.74,3,Alex Trevino,San Antonio Southside,118.39,204.12,113.4,188.24,505.76,Single-ply,SBD,M
Boys,124.74,4,Jose Alaniz,Natalia,110.68,181.44,92.99,192.78,467.2,Single-ply,SBD,M
Boys,124.74,5,Joesph Garcia,Del Rio,116.94,174.63,102.06,181.44,458.13,Single-ply,SBD,M
Boys,124.74,6,Ruben Lomas,Comal Canyon,116.03,183.7,99.79,149.69,433.18,Single-ply,SBD,M
Boys,124.74,7,Brady Melde,Comal Canyon,123.47,142.88,102.06,183.7,428.64,Single-ply,SBD,M
Boys,124.74+,1,Jacob Smith,Comal Canyon,132.72,269.89,136.08,224.53,630.49,Single-ply,SBD,M
Boys,124.74+,2,Nick O'Bryant,Castroville Medina Valley,130.73,263.08,140.61,222.26,625.96,Single-ply,SBD,M
Boys,124.74+,3,Charest Inman,Castroville Medina Valley,145.69,238.14,154.22,222.26,614.62,Single-ply,SBD,M
Boys,124.74+,4,Cody Krampitz,Comal Canyon,129.91,219.99,115.67,190.51,526.17,Single-ply,SBD,M
Boys,124.74+,5,Izaiha Ramirez,Comal Canyon,145.97,190.51,117.93,183.7,492.15,Single-ply,SBD,M
Boys,124.74+,6,Chris Frank,Del Rio,135.71,183.7,115.67,183.7,483.08,Single-ply,SBD,M
Boys,124.74+,DQ,Lico Hernandez,Del Rio,127.19,165.56,120.2,,,Single-ply,SBD,M
